%YAML 1.1
%TAG !u! tag:unity3d.com,2011:
--- !u!114 &-6319354925255677290
MonoBehaviour:
  m_ObjectHideFlags: 0
  m_CorrespondingSourceObject: {fileID: 0}
  m_PrefabInstance: {fileID: 0}
  m_PrefabAsset: {fileID: 0}
  m_GameObject: {fileID: 0}
  m_Enabled: 1
  m_EditorHideFlags: 0
  m_Script: {fileID: 11500000, guid: f4c3631f5e58749a59194e0cf6baf6d5, type: 3}
  m_Name: WebGL Providers
  m_EditorClassIdentifier: 
  m_RequiresSettingsUpdate: 0
  m_AutomaticLoading: 0
  m_AutomaticRunning: 0
  m_Loaders: []
--- !u!114 &-234791073592314182
MonoBehaviour:
  m_ObjectHideFlags: 0
  m_CorrespondingSourceObject: {fileID: 0}
  m_PrefabInstance: {fileID: 0}
  m_PrefabAsset: {fileID: 0}
  m_GameObject: {fileID: 0}
  m_Enabled: 1
  m_EditorHideFlags: 0
  m_Script: {fileID: 11500000, guid: d236b7d11115f2143951f1e14045df39, type: 3}
  m_Name: WebGL Settings
  m_EditorClassIdentifier: 
  m_LoaderManagerInstance: {fileID: -6319354925255677290}
  m_InitManagerOnStart: 1
--- !u!114 &11400000
MonoBehaviour:
  m_ObjectHideFlags: 0
  m_CorrespondingSourceObject: {fileID: 0}
  m_PrefabInstance: {fileID: 0}
  m_PrefabAsset: {fileID: 0}
  m_GameObject: {fileID: 0}
  m_Enabled: 1
  m_EditorHideFlags: 0
  m_Script: {fileID: 11500000, guid: d2dc886499c26824283350fa532d087d, type: 3}
  m_Name: XRGeneralSettings
  m_EditorClassIdentifier: 
  Keys: 01000000070000000d000000
  Values:
  - {fileID: 4858371601783246500}
  - {fileID: 1242307641538205499}
  - {fileID: -234791073592314182}
--- !u!114 &1242307641538205499
MonoBehaviour:
  m_ObjectHideFlags: 0
  m_CorrespondingSourceObject: {fileID: 0}
  m_PrefabInstance: {fileID: 0}
  m_PrefabAsset: {fileID: 0}
  m_GameObject: {fileID: 0}
  m_Enabled: 1
  m_EditorHideFlags: 0
  m_Script: {fileID: 11500000, guid: d236b7d11115f2143951f1e14045df39, type: 3}
  m_Name: Android Settings
  m_EditorClassIdentifier: 
  m_LoaderManagerInstance: {fileID: 4910355626662179834}
  m_InitManagerOnStart: 1
--- !u!114 &4858371601783246500
MonoBehaviour:
  m_ObjectHideFlags: 0
  m_CorrespondingSourceObject: {fileID: 0}
  m_PrefabInstance: {fileID: 0}
  m_PrefabAsset: {fileID: 0}
  m_GameObject: {fileID: 0}
  m_Enabled: 1
  m_EditorHideFlags: 0
  m_Script: {fileID: 11500000, guid: d236b7d11115f2143951f1e14045df39, type: 3}
  m_Name: Standalone Settings
  m_EditorClassIdentifier: 
  m_LoaderManagerInstance: {fileID: 6366774562192929230}
  m_InitManagerOnStart: 1
--- !u!114 &4910355626662179834
MonoBehaviour:
  m_ObjectHideFlags: 0
  m_CorrespondingSourceObject: {fileID: 0}
  m_PrefabInstance: {fileID: 0}
  m_PrefabAsset: {fileID: 0}
  m_GameObject: {fileID: 0}
  m_Enabled: 1
  m_EditorHideFlags: 0
  m_Script: {fileID: 11500000, guid: f4c3631f5e58749a59194e0cf6baf6d5, type: 3}
  m_Name: Android Providers
  m_EditorClassIdentifier: 
  m_RequiresSettingsUpdate: 0
  m_AutomaticLoading: 0
  m_AutomaticRunning: 0
  m_Loaders: []
--- !u!114 &6366774562192929230
MonoBehaviour:
  m_ObjectHideFlags: 0
  m_CorrespondingSourceObject: {fileID: 0}
  m_PrefabInstance: {fileID: 0}
  m_PrefabAsset: {fileID: 0}
  m_GameObject: {fileID: 0}
  m_Enabled: 1
  m_EditorHideFlags: 0
  m_Script: {fileID: 11500000, guid: f4c3631f5e58749a59194e0cf6baf6d5, type: 3}
  m_Name: Standalone Providers
  m_EditorClassIdentifier: 
  m_RequiresSettingsUpdate: 0
  m_AutomaticLoading: 0
  m_AutomaticRunning: 0
  m_Loaders:
  - {fileID: 11400000, guid: 23af153f20ebc4bd0a2e71adcbdde4db, type: 2}
